{
"instructions_readme": "1) Open Chrome, 2) go to chrome://tracing, 3) click Load, 4) navigate to this file.",
"traceEvents":[
{ "cat":"", "pid":1, "tid":0, "ts":0, "ph":"M", "name":"process_name", "args": { "name":"tundra" } }
,{ "pid":1, "tid":0, "ts":1634052522145570, "dur":3046, "ph":"X", "name": "DriverCheckDagSignatures",  "args": { "durationMS":3, "detail":"" }}
,{ "pid":1, "tid":0, "ts":1634052522148616, "dur":229, "ph":"X", "name": "DriverInitData",  "args": { "durationMS":0, "detail":"" }}
,{ "pid":1, "tid":0, "ts":1634052522148955, "dur":2, "ph":"X", "name": "Tundra",  "args": { "durationMS":0, "detail":"RemoveStaleOutputs" }}
,{ "pid":1, "tid":0, "ts":1634052522148960, "dur":0, "ph":"X", "name": "Tundra",  "args": { "durationMS":0, "detail":"PrepareNodes" }}
,{ "pid":1, "tid":0, "ts":1634052522148960, "dur":215, "ph":"X", "name": "Tundra",  "args": { "durationMS":0, "detail":"BuildQueueInit" }}
,{ "pid":1, "tid":0, "ts":1634052598589069, "dur":511, "ph":"X", "name": "JoinBuildThread",  "args": { "durationMS":1, "detail":"" }}
,{ "pid":1, "tid":0, "ts":1634052598589777, "dur":36, "ph":"X", "name": "JoinBuildThread",  "args": { "durationMS":0, "detail":"" }}
,{ "pid":1, "tid":0, "ts":1634052598589949, "dur":17, "ph":"X", "name": "JoinBuildThread",  "args": { "durationMS":0, "detail":"" }}
,{ "pid":1, "tid":0, "ts":1634052598590161, "dur":11, "ph":"X", "name": "JoinBuildThread",  "args": { "durationMS":0, "detail":"" }}
,{ "pid":1, "tid":0, "ts":1634052598590358, "dur":13, "ph":"X", "name": "JoinBuildThread",  "args": { "durationMS":0, "detail":"" }}
,{ "pid":1, "tid":0, "ts":1634052598590468, "dur":27, "ph":"X", "name": "JoinBuildThread",  "args": { "durationMS":0, "detail":"" }}
,{ "pid":1, "tid":0, "ts":1634052598590588, "dur":27, "ph":"X", "name": "JoinBuildThread",  "args": { "durationMS":0, "detail":"" }}
,{ "pid":1, "tid":0, "ts":1634052598590726, "dur":5, "ph":"X", "name": "JoinBuildThread",  "args": { "durationMS":0, "detail":"" }}
,{ "pid":1, "tid":0, "ts":1634052598590829, "dur":4, "ph":"X", "name": "JoinBuildThread",  "args": { "durationMS":0, "detail":"" }}
,{ "pid":1, "tid":0, "ts":1634052598590937, "dur":6, "ph":"X", "name": "JoinBuildThread",  "args": { "durationMS":0, "detail":"" }}
,{ "pid":1, "tid":0, "ts":1634052598591040, "dur":5, "ph":"X", "name": "JoinBuildThread",  "args": { "durationMS":0, "detail":"" }}
,{ "pid":1, "tid":0, "ts":1634052598591140, "dur":4, "ph":"X", "name": "JoinBuildThread",  "args": { "durationMS":0, "detail":"" }}
,{ "pid":1, "tid":0, "ts":1634052598591241, "dur":4, "ph":"X", "name": "JoinBuildThread",  "args": { "durationMS":0, "detail":"" }}
,{ "pid":1, "tid":0, "ts":1634052598591345, "dur":4, "ph":"X", "name": "JoinBuildThread",  "args": { "durationMS":0, "detail":"" }}
,{ "pid":1, "tid":0, "ts":1634052598591444, "dur":7, "ph":"X", "name": "JoinBuildThread",  "args": { "durationMS":0, "detail":"" }}
,{ "pid":1, "tid":0, "ts":1634052598591588, "dur":7, "ph":"X", "name": "JoinBuildThread",  "args": { "durationMS":0, "detail":"" }}
,{ "pid":1, "tid":0, "ts":1634052598591692, "dur":0, "ph":"X", "name": "SharedResourceDestroy",  "args": { "durationMS":0, "detail":"" }}
,{ "pid":1, "tid":0, "ts":1634052598591739, "dur":1035, "ph":"X", "name": "Tundra",  "args": { "durationMS":1, "detail":"Write AllBuiltNodes" }}
,{ "pid":1, "tid":1, "ts":1634052522149005, "dur":76440494, "ph":"X", "name": "WaitingForWork", "cname":"thread_state_sleeping",  "args": { "durationMS":76440, "detail":"" }}
,{ "pid":1, "tid":1, "ts":1634052598589510, "dur":10, "ph":"X", "name": "Exiting",  "args": { "durationMS":0, "detail":"BuildLoop" }}
,{ "pid":1, "tid":2, "ts":1634052522149024, "dur":76440572, "ph":"X", "name": "WaitingForWork", "cname":"thread_state_sleeping",  "args": { "durationMS":76441, "detail":"" }}
,{ "pid":1, "tid":2, "ts":1634052598589776, "dur":3, "ph":"X", "name": "Exiting",  "args": { "durationMS":0, "detail":"BuildLoop" }}
,{ "pid":1, "tid":3, "ts":1634052522149027, "dur":76440128, "ph":"X", "name": "WaitingForWork", "cname":"thread_state_sleeping",  "args": { "durationMS":76440, "detail":"" }}
,{ "pid":1, "tid":3, "ts":1634052598589439, "dur":28, "ph":"X", "name": "Exiting",  "args": { "durationMS":0, "detail":"BuildLoop" }}
,{ "pid":1, "tid":4, "ts":1634052522149050, "dur":76440746, "ph":"X", "name": "WaitingForWork", "cname":"thread_state_sleeping",  "args": { "durationMS":76441, "detail":"" }}
,{ "pid":1, "tid":4, "ts":1634052598589808, "dur":6, "ph":"X", "name": "Exiting",  "args": { "durationMS":0, "detail":"BuildLoop" }}
,{ "pid":1, "tid":5, "ts":1634052522149063, "dur":76440779, "ph":"X", "name": "WaitingForWork", "cname":"thread_state_sleeping",  "args": { "durationMS":76441, "detail":"" }}
,{ "pid":1, "tid":5, "ts":1634052598589973, "dur":199, "ph":"X", "name": "Exiting",  "args": { "durationMS":0, "detail":"BuildLoop" }}
,{ "pid":1, "tid":6, "ts":1634052522149072, "dur":76440441, "ph":"X", "name": "WaitingForWork", "cname":"thread_state_sleeping",  "args": { "durationMS":76440, "detail":"" }}
,{ "pid":1, "tid":6, "ts":1634052598589533, "dur":16, "ph":"X", "name": "Exiting",  "args": { "durationMS":0, "detail":"BuildLoop" }}
,{ "pid":1, "tid":7, "ts":1634052522149083, "dur":76440484, "ph":"X", "name": "WaitingForWork", "cname":"thread_state_sleeping",  "args": { "durationMS":76440, "detail":"" }}
,{ "pid":1, "tid":7, "ts":1634052598589583, "dur":11, "ph":"X", "name": "Exiting",  "args": { "durationMS":0, "detail":"BuildLoop" }}
,{ "pid":1, "tid":8, "ts":1634052522149093, "dur":76441274, "ph":"X", "name": "WaitingForWork", "cname":"thread_state_sleeping",  "args": { "durationMS":76441, "detail":"" }}
,{ "pid":1, "tid":8, "ts":1634052598590370, "dur":4, "ph":"X", "name": "Exiting",  "args": { "durationMS":0, "detail":"BuildLoop" }}
,{ "pid":1, "tid":9, "ts":1634052522149103, "dur":76440434, "ph":"X", "name": "WaitingForWork", "cname":"thread_state_sleeping",  "args": { "durationMS":76440, "detail":"" }}
,{ "pid":1, "tid":9, "ts":1634052598589563, "dur":14, "ph":"X", "name": "Exiting",  "args": { "durationMS":0, "detail":"BuildLoop" }}
,{ "pid":1, "tid":10, "ts":1634052522149114, "dur":76440706, "ph":"X", "name": "WaitingForWork", "cname":"thread_state_sleeping",  "args": { "durationMS":76441, "detail":"" }}
,{ "pid":1, "tid":10, "ts":1634052598589836, "dur":4, "ph":"X", "name": "Exiting",  "args": { "durationMS":0, "detail":"BuildLoop" }}
,{ "pid":1, "tid":11, "ts":1634052522149126, "dur":76440310, "ph":"X", "name": "WaitingForWork", "cname":"thread_state_sleeping",  "args": { "durationMS":76440, "detail":"" }}
,{ "pid":1, "tid":11, "ts":1634052598589487, "dur":17, "ph":"X", "name": "Exiting",  "args": { "durationMS":0, "detail":"BuildLoop" }}
,{ "pid":1, "tid":12, "ts":1634052522149138, "dur":76440644, "ph":"X", "name": "WaitingForWork", "cname":"thread_state_sleeping",  "args": { "durationMS":76441, "detail":"" }}
,{ "pid":1, "tid":12, "ts":1634052598589792, "dur":21, "ph":"X", "name": "Exiting",  "args": { "durationMS":0, "detail":"BuildLoop" }}
,{ "pid":1, "tid":13, "ts":1634052522149149, "dur":76441035, "ph":"X", "name": "WaitingForWork", "cname":"thread_state_sleeping",  "args": { "durationMS":76441, "detail":"" }}
,{ "pid":1, "tid":13, "ts":1634052598590366, "dur":131, "ph":"X", "name": "Exiting",  "args": { "durationMS":0, "detail":"BuildLoop" }}
,{ "pid":1, "tid":14, "ts":1634052522149159, "dur":76440651, "ph":"X", "name": "WaitingForWork", "cname":"thread_state_sleeping",  "args": { "durationMS":76441, "detail":"" }}
,{ "pid":1, "tid":14, "ts":1634052598589816, "dur":35, "ph":"X", "name": "Exiting",  "args": { "durationMS":0, "detail":"BuildLoop" }}
,{ "pid":1, "tid":15, "ts":1634052522149170, "dur":41, "ph":"X", "name": "WaitingForWork", "cname":"thread_state_sleeping",  "args": { "durationMS":0, "detail":"" }}
,{ "pid":1, "tid":15, "ts":1634052522149280, "dur":93385, "ph":"X", "name": "CheckInputSignature",  "args": { "durationMS":93, "detail":"Il2Cpp /Users/tev7320/VRProject/Library/Il2cppBuildCache/macOS/ARM64/Native/GameAssembly.dylib" }}
,{ "pid":1, "tid":15, "ts":1634052522242962, "dur":76345957, "ph":"X", "name": "Il2Cpp",  "args": { "durationMS":76346, "detail":"/Users/tev7320/VRProject/Library/Il2cppBuildCache/macOS/ARM64/Native/GameAssembly.dylib" }}
,{ "pid":1, "tid":15, "ts":1634052598588936, "dur":9, "ph":"X", "name": "CheckInputSignature",  "args": { "durationMS":0, "detail":"all_tundra_nodes" }}
,{ "pid":1, "tid":15, "ts":1634052598589000, "dur":91, "ph":"X", "name": "WaitingForWork", "cname":"thread_state_sleeping",  "args": { "durationMS":0, "detail":"" }}
,{ "pid":1, "tid":15, "ts":1634052598589091, "dur":1, "ph":"X", "name": "Exiting",  "args": { "durationMS":0, "detail":"BuildLoop" }}
,{ "pid":1, "tid":16, "ts":1634052522149314, "dur":76440657, "ph":"X", "name": "WaitingForWork", "cname":"thread_state_sleeping",  "args": { "durationMS":76441, "detail":"" }}
,{ "pid":1, "tid":16, "ts":1634052598590175, "dur":7, "ph":"X", "name": "Exiting",  "args": { "durationMS":0, "detail":"BuildLoop" }}

]
}
