{"msg":"init","dagFile":"artifacts/tundra.dag","targets":[]}
{"msg":"enqueueNode","enqueuedNodeAnnotation":"all_tundra_nodes","enqueuedNodeIndex":0}
{"msg":"enqueueNode","enqueuedNodeAnnotation":"Il2Cpp /Users/tev7320/VRProject/Library/Il2cppBuildCache/macOS/ARM64/Native/GameAssembly.dylib","enqueuedNodeIndex":1,"enqueueingNodeAnnotation":"all_tundra_nodes","enqueueingNodeIndex":0}
{"msg":"newNode","annotation":"Il2Cpp /Users/tev7320/VRProject/Library/Il2cppBuildCache/macOS/ARM64/Native/GameAssembly.dylib","index":1}
{"msg":"noderesult","annotation":"Il2Cpp /Users/tev7320/VRProject/Library/Il2cppBuildCache/macOS/ARM64/Native/GameAssembly.dylib","index":1,"exitcode":0}
{"msg":"newNode","annotation":"all_tundra_nodes","index":0}
